{
    "docs": [
        {
            "_id": "5cd99d4bde30eff6ebccfbbe",
            "name": "Adanel",
            "wikiUrl": "http://lotr.wikia.com//wiki/Adanel",
            "race": "Human",
            "birth": null,
            "gender": "Female",
            "death": null,
            "hair": null,
            "height": null,
            "realm": null,
            "spouse": "Belemir"
        },
        {
            "_id": "5cd99d4bde30eff6ebccfbbf",
            "name": "Adrahil I",
            "wikiUrl": "http://lotr.wikia.com//wiki/Adrahil_I",
            "race": "Human",
            "birth": "Before ,TA 1944",
            "gender": "Male",
            "death": "Late ,Third Age",
            "hair": null,
            "height": null,
            "realm": null,
            "spouse": null
        },
        {
            "_id": "5cd99d4bde30eff6ebccfbc0",
            "name": "Adrahil II",
            "wikiUrl": "http://lotr.wikia.com//wiki/Adrahil_II",
            "race": "Human",
            "birth": "TA 2917",
            "gender": "Male",
            "death": "TA 3010",
            "hair": null,
            "height": null,
            "realm": null,
            "spouse": "Unnamed wife"
        },
        {
            "_id": "5cd99d4bde30eff6ebccfbc1",
            "name": "Aegnor",
            "wikiUrl": "http://lotr.wikia.com//wiki/Aegnor",
            "race": "Elf",
            "birth": "YT during the ,Noontide of Valinor",
            "gender": "Male",
            "death": "FA 455",
            "hair": "Golden",
            "height": null,
            "realm": null,
            "spouse": "Loved ,Andreth but remained unmarried"
        },
        {
            "_id": "5cd99d4bde30eff6ebccfbc2",
            "name": "Aerin",
            "wikiUrl": "http://lotr.wikia.com//wiki/Aerin",
            "race": "Human",
            "birth": "Mid ,First Age",
            "gender": "Female",
            "death": "FA 495",
            "hair": null,
            "height": null,
            "realm": null,
            "spouse": "Brodda"
        },
        {
            "_id": "5cd99d4bde30eff6ebccfbc3",
            "name": "Ailinel",
            "wikiUrl": "http://lotr.wikia.com//wiki/Ailinel",
            "race": "Human",
            "birth": "Between ,SA 700, and ,SA 750",
            "gender": "Female",
            "death": "Early ,Second Age",
            "hair": null,
            "height": null,
            "realm": null,
            "spouse": "Orchaldor"
        },
        {
            "_id": "5cd99d4bde30eff6ebccfbc4",
            "name": "Aglahad",
            "wikiUrl": "http://lotr.wikia.com//wiki/Aglahad",
            "race": "Human",
            "birth": "TA 2827",
            "gender": "Male",
            "death": "TA 2932",
            "hair": null,
            "height": null,
            "realm": null,
            "spouse": "Unnamed wife"
        },
        {
            "_id": "5cd99d4bde30eff6ebccfbc5",
            "name": "Algund",
            "wikiUrl": "http://lotr.wikia.com//wiki/Algund",
            "race": "Human",
            "birth": "Late ,First Age",
            "gender": "Male",
            "death": "FA 489",
            "hair": null,
            "height": null,
            "realm": null,
            "spouse": "None known"
        },
        {
            "_id": "5cd99d4bde30eff6ebccfbc6",
            "name": "Almiel",
            "wikiUrl": "http://lotr.wikia.com//wiki/Almiel",
            "race": "Human",
            "birth": "Between ,SA 700, and ,SA 750",
            "gender": "Female",
            "death": "Early ,Second Age",
            "hair": null,
            "height": null,
            "realm": null,
            "spouse": null
        },
        {
            "_id": "5cd99d4bde30eff6ebccfbc7",
            "name": "Alphros",
            "wikiUrl": "http://lotr.wikia.com//wiki/Alphros",
            "race": "Human",
            "birth": "TA 3017",
            "gender": "Male",
            "death": "FO 95",
            "hair": null,
            "height": null,
            "realm": null,
            "spouse": null
        }
    ],
    "total": 933,
    "limit": 10,
    "offset": 0,
    "page": 1,
    "pages": 94
}
